<?xml version="1.0" encoding="UTF-8" standalone="no"?>
<!-- Created with Inkscape (http://www.inkscape.org/) -->

<svg
   xmlns:dc="http://purl.org/dc/elements/1.1/"
   xmlns:cc="http://creativecommons.org/ns#"
   xmlns:rdf="http://www.w3.org/1999/02/22-rdf-syntax-ns#"
   xmlns:svg="http://www.w3.org/2000/svg"
   xmlns="http://www.w3.org/2000/svg"
   xmlns:sodipodi="http://sodipodi.sourceforge.net/DTD/sodipodi-0.dtd"
   xmlns:inkscape="http://www.inkscape.org/namespaces/inkscape"
   width="41.788445mm"
   height="51.677464mm"
   viewBox="0 0 41.788445 51.677464"
   version="1.1"
   id="svg8"
   inkscape:version="0.92.4 (5da689c313, 2019-01-14)"
   sodipodi:docname="svachuu.svg">
  <defs
     id="defs2">
    <inkscape:perspective
       sodipodi:type="inkscape:persp3d"
       inkscape:vp_x="0 : 148.5 : 1"
       inkscape:vp_y="0 : 1000 : 0"
       inkscape:vp_z="210 : 148.5 : 1"
       inkscape:persp3d-origin="105 : 99.000001 : 1"
       id="perspective815" />
  </defs>
  <sodipodi:namedview
     id="base"
     pagecolor="#ffffff"
     bordercolor="#666666"
     borderopacity="1.0"
     inkscape:pageopacity="0.0"
     inkscape:pageshadow="2"
     inkscape:zoom="0.49497475"
     inkscape:cx="253.86373"
     inkscape:cy="13.211193"
     inkscape:document-units="mm"
     inkscape:current-layer="layer1"
     showgrid="false"
     inkscape:window-width="1918"
     inkscape:window-height="1059"
     inkscape:window-x="1920"
     inkscape:window-y="19"
     inkscape:window-maximized="1"
     fit-margin-top="0"
     fit-margin-left="0"
     fit-margin-right="0"
     fit-margin-bottom="0" />
  <metadata
     id="metadata5">
    <rdf:RDF>
      <cc:Work
         rdf:about="">
        <dc:format>image/svg+xml</dc:format>
        <dc:type
           rdf:resource="http://purl.org/dc/dcmitype/StillImage" />
        <dc:title></dc:title>
      </cc:Work>
    </rdf:RDF>
  </metadata>
  <g
     inkscape:label="Layer 1"
     inkscape:groupmode="layer"
     id="layer1"
     transform="translate(-40.978584,-77.138449)">
    <path
       style="fill:none;stroke:#000000;stroke-width:2.5;stroke-linecap:butt;stroke-linejoin:miter;stroke-miterlimit:4;stroke-dasharray:none;stroke-opacity:1"
       d="m 42.228584,127.55112 v -24.32153 h 22.717911 v 24.05426 z"
       id="path845"
       inkscape:connector-curvature="0"
       inkscape:export-xdpi="65.040001"
       inkscape:export-ydpi="65.040001" />
    <path
       style="fill:none;stroke:#000000;stroke-width:2.5;stroke-linecap:butt;stroke-linejoin:miter;stroke-miterlimit:4;stroke-dasharray:none;stroke-opacity:1"
       d="M 42.228584,103.22959 53.902091,83.01048 65.284688,102.72572"
       id="path847"
       inkscape:connector-curvature="0"
       inkscape:export-xdpi="65.040001"
       inkscape:export-ydpi="65.040001" />
    <path
       style="fill:none;stroke:#000000;stroke-width:2.5;stroke-linecap:butt;stroke-linejoin:miter;stroke-miterlimit:4;stroke-dasharray:none;stroke-opacity:1"
       d="m 53.902091,83.01048 16.482134,-4.416375 10.57535,18.317043 -16.01308,6.318442"
       id="path849"
       inkscape:connector-curvature="0"
       inkscape:export-xdpi="65.040001"
       inkscape:export-ydpi="65.040001" />
    <path
       style="fill:none;stroke:#000000;stroke-width:2.5;stroke-linecap:butt;stroke-linejoin:miter;stroke-miterlimit:4;stroke-dasharray:none;stroke-opacity:1"
       d="m 80.959573,96.911146 v 22.087344 l -16.013078,8.28536"
       id="path851"
       inkscape:connector-curvature="0"
       inkscape:export-xdpi="65.040001"
       inkscape:export-ydpi="65.040001" />
    <text
       xml:space="preserve"
       style="font-style:normal;font-weight:normal;font-size:29.63567924px;line-height:1.25;font-family:sans-serif;letter-spacing:0px;word-spacing:0px;fill:#000000;fill-opacity:1;stroke:none;stroke-width:0.74089193"
       x="46.619484"
       y="123.7114"
       id="text855"
       inkscape:export-xdpi="65.040001"
       inkscape:export-ydpi="65.040001"><tspan
         sodipodi:role="line"
         id="tspan853"
         x="46.619484"
         y="123.7114"
         style="font-style:normal;font-variant:normal;font-weight:normal;font-stretch:normal;font-family:ArcadeClassic;-inkscape-font-specification:ArcadeClassic;stroke-width:0.74089193">S</tspan></text>
  </g>
</svg>
